{
  "configVersion": 2,
  "packages": [
    {
      "name": "archive",
      "rootUri": "file:///Users/katecodjia/.pub-cache/hosted/pub.dev/archive-3.3.6",
      "packageUri": "lib/",
      "languageVersion": "2.12"
    },
    {
      "name": "args",
      "rootUri": "file:///Users/katecodjia/.pub-cache/hosted/pub.dev/args-2.4.0",
      "packageUri": "lib/",
      "languageVersion": "2.18"
    },
    {
      "name": "async",
      "rootUri": "file:///Users/katecodjia/.pub-cache/hosted/pub.dev/async-2.10.0",
      "packageUri": "lib/",
      "languageVersion": "2.18"
    },
    {
      "name": "boolean_selector",
      "rootUri": "file:///Users/katecodjia/.pub-cache/hosted/pub.dev/boolean_selector-2.1.1",
      "packageUri": "lib/",
      "languageVersion": "2.17"
    },
    {
      "name": "characters",
      "rootUri": "file:///Users/katecodjia/.pub-cache/hosted/pub.dev/characters-1.2.1",
      "packageUri": "lib/",
      "languageVersion": "2.12"
    },
    {
      "name": "checked_yaml",
      "rootUri": "file:///Users/katecodjia/.pub-cache/hosted/pub.dev/checked_yaml-2.0.2",
      "packageUri": "lib/",
      "languageVersion": "2.18"
    },
    {
      "name": "cli_util",
      "rootUri": "file:///Users/katecodjia/.pub-cache/hosted/pub.dev/cli_util-0.3.5",
      "packageUri": "lib/",
      "languageVersion": "2.12"
    },
    {
      "name": "clock",
      "rootUri": "file:///Users/katecodjia/.pub-cache/hosted/pub.dev/clock-1.1.1",
      "packageUri": "lib/",
      "languageVersion": "2.12"
    },
    {
      "name": "collection",
      "rootUri": "file:///Users/katecodjia/.pub-cache/hosted/pub.dev/collection-1.17.0",
      "packageUri": "lib/",
      "languageVersion": "2.12"
    },
    {
      "name": "convert",
      "rootUri": "file:///Users/katecodjia/.pub-cache/hosted/pub.dev/convert-3.1.1",
      "packageUri": "lib/",
      "languageVersion": "2.18"
    },
    {
      "name": "crypto",
      "rootUri": "file:///Users/katecodjia/.pub-cache/hosted/pub.dev/crypto-3.0.2",
      "packageUri": "lib/",
      "languageVersion": "2.14"
    },
    {
      "name": "cupertino_icons",
      "rootUri": "file:///Users/katecodjia/.pub-cache/hosted/pub.dev/cupertino_icons-1.0.5",
      "packageUri": "lib/",
      "languageVersion": "2.12"
    },
    {
      "name": "device_info_plus",
      "rootUri": "file:///Users/katecodjia/.pub-cache/hosted/pub.dev/device_info_plus-8.1.0",
      "packageUri": "lib/",
      "languageVersion": "2.12"
    },
    {
      "name": "device_info_plus_platform_interface",
      "rootUri": "file:///Users/katecodjia/.pub-cache/hosted/pub.dev/device_info_plus_platform_interface-7.0.0",
      "packageUri": "lib/",
      "languageVersion": "2.12"
    },
    {
      "name": "dio",
      "rootUri": "file:///Users/katecodjia/.pub-cache/hosted/pub.dev/dio-5.1.1",
      "packageUri": "lib/",
      "languageVersion": "2.15"
    },
    {
      "name": "fake_async",
      "rootUri": "file:///Users/katecodjia/.pub-cache/hosted/pub.dev/fake_async-1.3.1",
      "packageUri": "lib/",
      "languageVersion": "2.12"
    },
    {
      "name": "ffi",
      "rootUri": "file:///Users/katecodjia/.pub-cache/hosted/pub.dev/ffi-2.0.1",
      "packageUri": "lib/",
      "languageVersion": "2.17"
    },
    {
      "name": "file",
      "rootUri": "file:///Users/katecodjia/.pub-cache/hosted/pub.dev/file-6.1.4",
      "packageUri": "lib/",
      "languageVersion": "2.12"
    },
    {
      "name": "flutter",
      "rootUri": "file:///Users/katecodjia/flutter/packages/flutter",
      "packageUri": "lib/",
      "languageVersion": "2.17"
    },
    {
      "name": "flutter_launcher_icons",
      "rootUri": "file:///Users/katecodjia/.pub-cache/hosted/pub.dev/flutter_launcher_icons-0.12.0",
      "packageUri": "lib/",
      "languageVersion": "2.18"
    },
    {
      "name": "flutter_lints",
      "rootUri": "file:///Users/katecodjia/.pub-cache/hosted/pub.dev/flutter_lints-2.0.1",
      "packageUri": "lib/",
      "languageVersion": "2.17"
    },
    {
      "name": "flutter_phoenix",
      "rootUri": "file:///Users/katecodjia/.pub-cache/hosted/pub.dev/flutter_phoenix-1.1.1",
      "packageUri": "lib/",
      "languageVersion": "2.19"
    },
    {
      "name": "flutter_screenutil",
      "rootUri": "file:///Users/katecodjia/.pub-cache/hosted/pub.dev/flutter_screenutil-5.7.0",
      "packageUri": "lib/",
      "languageVersion": "2.12"
    },
    {
      "name": "flutter_secure_storage",
      "rootUri": "file:///Users/katecodjia/.pub-cache/hosted/pub.dev/flutter_secure_storage-8.0.0",
      "packageUri": "lib/",
      "languageVersion": "2.12"
    },
    {
      "name": "flutter_secure_storage_linux",
      "rootUri": "file:///Users/katecodjia/.pub-cache/hosted/pub.dev/flutter_secure_storage_linux-1.1.3",
      "packageUri": "lib/",
      "languageVersion": "2.12"
    },
    {
      "name": "flutter_secure_storage_macos",
      "rootUri": "file:///Users/katecodjia/.pub-cache/hosted/pub.dev/flutter_secure_storage_macos-3.0.0",
      "packageUri": "lib/",
      "languageVersion": "2.12"
    },
    {
      "name": "flutter_secure_storage_platform_interface",
      "rootUri": "file:///Users/katecodjia/.pub-cache/hosted/pub.dev/flutter_secure_storage_platform_interface-1.0.1",
      "packageUri": "lib/",
      "languageVersion": "2.12"
    },
    {
      "name": "flutter_secure_storage_web",
      "rootUri": "file:///Users/katecodjia/.pub-cache/hosted/pub.dev/flutter_secure_storage_web-1.1.1",
      "packageUri": "lib/",
      "languageVersion": "2.12"
    },
    {
      "name": "flutter_secure_storage_windows",
      "rootUri": "file:///Users/katecodjia/.pub-cache/hosted/pub.dev/flutter_secure_storage_windows-2.0.0",
      "packageUri": "lib/",
      "languageVersion": "2.12"
    },
    {
      "name": "flutter_test",
      "rootUri": "file:///Users/katecodjia/flutter/packages/flutter_test",
      "packageUri": "lib/",
      "languageVersion": "2.17"
    },
    {
      "name": "flutter_web_plugins",
      "rootUri": "file:///Users/katecodjia/flutter/packages/flutter_web_plugins",
      "packageUri": "lib/",
      "languageVersion": "2.17"
    },
    {
      "name": "http_parser",
      "rootUri": "file:///Users/katecodjia/.pub-cache/hosted/pub.dev/http_parser-4.0.2",
      "packageUri": "lib/",
      "languageVersion": "2.12"
    },
    {
      "name": "image",
      "rootUri": "file:///Users/katecodjia/.pub-cache/hosted/pub.dev/image-4.0.15",
      "packageUri": "lib/",
      "languageVersion": "2.15"
    },
    {
      "name": "js",
      "rootUri": "file:///Users/katecodjia/.pub-cache/hosted/pub.dev/js-0.6.5",
      "packageUri": "lib/",
      "languageVersion": "2.16"
    },
    {
      "name": "json_annotation",
      "rootUri": "file:///Users/katecodjia/.pub-cache/hosted/pub.dev/json_annotation-4.8.0",
      "packageUri": "lib/",
      "languageVersion": "2.18"
    },
    {
      "name": "lints",
      "rootUri": "file:///Users/katecodjia/.pub-cache/hosted/pub.dev/lints-2.0.1",
      "packageUri": "lib/",
      "languageVersion": "2.17"
    },
    {
      "name": "matcher",
      "rootUri": "file:///Users/katecodjia/.pub-cache/hosted/pub.dev/matcher-0.12.13",
      "packageUri": "lib/",
      "languageVersion": "2.18"
    },
    {
      "name": "material_color_utilities",
      "rootUri": "file:///Users/katecodjia/.pub-cache/hosted/pub.dev/material_color_utilities-0.2.0",
      "packageUri": "lib/",
      "languageVersion": "2.13"
    },
    {
      "name": "meta",
      "rootUri": "file:///Users/katecodjia/.pub-cache/hosted/pub.dev/meta-1.8.0",
      "packageUri": "lib/",
      "languageVersion": "2.12"
    },
    {
      "name": "nested",
      "rootUri": "file:///Users/katecodjia/.pub-cache/hosted/pub.dev/nested-1.0.0",
      "packageUri": "lib/",
      "languageVersion": "2.12"
    },
    {
      "name": "path",
      "rootUri": "file:///Users/katecodjia/.pub-cache/hosted/pub.dev/path-1.8.2",
      "packageUri": "lib/",
      "languageVersion": "2.12"
    },
    {
      "name": "petitparser",
      "rootUri": "file:///Users/katecodjia/.pub-cache/hosted/pub.dev/petitparser-5.1.0",
      "packageUri": "lib/",
      "languageVersion": "2.18"
    },
    {
      "name": "plugin_platform_interface",
      "rootUri": "file:///Users/katecodjia/.pub-cache/hosted/pub.dev/plugin_platform_interface-2.1.4",
      "packageUri": "lib/",
      "languageVersion": "2.17"
    },
    {
      "name": "pointycastle",
      "rootUri": "file:///Users/katecodjia/.pub-cache/hosted/pub.dev/pointycastle-3.7.2",
      "packageUri": "lib/",
      "languageVersion": "2.14"
    },
    {
      "name": "provider",
      "rootUri": "file:///Users/katecodjia/.pub-cache/hosted/pub.dev/provider-6.0.5",
      "packageUri": "lib/",
      "languageVersion": "2.12"
    },
    {
      "name": "sky_engine",
      "rootUri": "file:///Users/katecodjia/flutter/bin/cache/pkg/sky_engine",
      "packageUri": "lib/",
      "languageVersion": "2.12"
    },
    {
      "name": "smooth_page_indicator",
      "rootUri": "file:///Users/katecodjia/.pub-cache/hosted/pub.dev/smooth_page_indicator-1.0.1",
      "packageUri": "lib/",
      "languageVersion": "2.12"
    },
    {
      "name": "source_span",
      "rootUri": "file:///Users/katecodjia/.pub-cache/hosted/pub.dev/source_span-1.9.1",
      "packageUri": "lib/",
      "languageVersion": "2.14"
    },
    {
      "name": "stack_trace",
      "rootUri": "file:///Users/katecodjia/.pub-cache/hosted/pub.dev/stack_trace-1.11.0",
      "packageUri": "lib/",
      "languageVersion": "2.18"
    },
    {
      "name": "status_bar_control",
      "rootUri": "file:///Users/katecodjia/.pub-cache/hosted/pub.dev/status_bar_control-3.2.1",
      "packageUri": "lib/",
      "languageVersion": "2.14"
    },
    {
      "name": "stream_channel",
      "rootUri": "file:///Users/katecodjia/.pub-cache/hosted/pub.dev/stream_channel-2.1.1",
      "packageUri": "lib/",
      "languageVersion": "2.14"
    },
    {
      "name": "string_scanner",
      "rootUri": "file:///Users/katecodjia/.pub-cache/hosted/pub.dev/string_scanner-1.2.0",
      "packageUri": "lib/",
      "languageVersion": "2.18"
    },
    {
      "name": "term_glyph",
      "rootUri": "file:///Users/katecodjia/.pub-cache/hosted/pub.dev/term_glyph-1.2.1",
      "packageUri": "lib/",
      "languageVersion": "2.12"
    },
    {
      "name": "test_api",
      "rootUri": "file:///Users/katecodjia/.pub-cache/hosted/pub.dev/test_api-0.4.16",
      "packageUri": "lib/",
      "languageVersion": "2.18"
    },
    {
      "name": "typed_data",
      "rootUri": "file:///Users/katecodjia/.pub-cache/hosted/pub.dev/typed_data-1.3.1",
      "packageUri": "lib/",
      "languageVersion": "2.12"
    },
    {
      "name": "vector_math",
      "rootUri": "file:///Users/katecodjia/.pub-cache/hosted/pub.dev/vector_math-2.1.4",
      "packageUri": "lib/",
      "languageVersion": "2.14"
    },
    {
      "name": "win32",
      "rootUri": "file:///Users/katecodjia/.pub-cache/hosted/pub.dev/win32-4.1.1",
      "packageUri": "lib/",
      "languageVersion": "2.17"
    },
    {
      "name": "xml",
      "rootUri": "file:///Users/katecodjia/.pub-cache/hosted/pub.dev/xml-6.2.2",
      "packageUri": "lib/",
      "languageVersion": "2.18"
    },
    {
      "name": "yaml",
      "rootUri": "file:///Users/katecodjia/.pub-cache/hosted/pub.dev/yaml-3.1.1",
      "packageUri": "lib/",
      "languageVersion": "2.12"
    },
    {
      "name": "cofee",
      "rootUri": "../",
      "packageUri": "lib/",
      "languageVersion": "2.19"
    }
  ],
  "generated": "2023-04-06T19:51:38.769645Z",
  "generator": "pub",
  "generatorVersion": "2.19.6"
}
